…
    ## `summarise()` ungrouping output (override with `.groups` argument)

``` r
VCR
```

    ## # A tibble: 51 x 3
    ##    state                average_violent_crime average_law
    ##    <chr>                                <dbl>       <dbl>
    ##  1 District of Columbia                 2049.       0    
    ##  2 Florida                               999.       0.522
    ##  3 New York                              941.       0    
    ##  4 California                            877.       0    
    ##  5 Maryland                              854.       0    
    ##  6 Illinois                              828.       0    
    ##  7 South Carolina                        800.       0.130
    ##  8 Louisiana                             778.       0.348
    ##  9 Nevada                                755.       0.174
    ## 10 New Mexico                            744.       0    
    ## # ... with 41 more rows
…
